projetoULA/simulation/qsim/projetoULA.msim.vcd
$comment
	File created using the following command:
		vcd file projetoULA.msim.vcd -direction
$end
$date
	Sat Mar 27 16:34:28 2021
$end
$version
	ModelSim Version 2020.1
$end
$timescale
	1ps
$end

$scope module Mux2x1_vlg_vec_tst $end
$var reg 1 ! F $end
$var reg 1 " G $end
$var reg 1 # seletor $end
$var wire 1 $ saida $end

$scope module i1 $end
$var wire 1 % gnd $end
$var wire 1 & vcc $end
$var wire 1 ' unknown $end
$var tri1 1 ( devclrn $end
$var tri1 1 ) devpor $end
$var tri1 1 * devoe $end
$var wire 1 + saida~output_o $end
$var wire 1 , seletor~input_o $end
$var wire 1 - F~input_o $end
$var wire 1 . G~input_o $end
$var wire 1 / inst2~0_combout $end
$upscope $end
$upscope $end
$enddefinitions $end
#0
$dumpvars
0!
1"
0#
1$
0%
1&
x'
1(
1)
1*
1+
0,
0-
1.
1/
$end
#5000
1!
0"
1#
1-
0.
1,
#10000
0!
1"
0#
0-
1.
0,
#15000
1#
1,
0/
0+
0$
#20000
1!
0#
1-
0,
1/
1+
1$
#25000
0"
0!
1#
0.
0-
1,
0/
0+
0$
#30000
1!
0#
1-
0,
#35000
1"
0!
1#
1.
0-
1,
#40000
0"
1!
0#
0.
1-
0,
#45000
1"
0!
1#
1.
0-
1,
#50000
0"
0#
0.
0,
#55000
1"
1#
1.
1,
#60000
1!
0"
0#
1-
0.
0,
#65000
0!
1"
1#
0-
1.
1,
#70000
0"
0#
0.
0,
#75000
1!
1#
1-
1,
1/
1+
1$
#80000
0!
0#
0-
0,
0/
0+
0$
#85000
1"
1#
1.
1,
#90000
1!
0#
1-
0,
1/
1+
1$
#95000
1#
1,
#100000
0"
0!
0#
0.
0-
0,
0/
0+
0$
#105000
1#
1,
#110000
0#
0,
#115000
1!
1#
1-
1,
1/
1+
1$
#120000
0#
0,
0/
0+
0$
#125000
1"
0!
1#
1.
0-
1,
#130000
0"
1!
0#
0.
1-
0,
#135000
1"
1#
1.
1,
1/
1+
1$
#140000
0!
0"
0#
0-
0.
0,
0/
0+
0$
#145000
1#
1,
#150000
0#
0,
#155000
1!
1"
1#
1-
1.
1,
1/
1+
1$
#160000
0!
0#
0-
0,
#165000
0"
1#
0.
1,
0/
0+
0$
#170000
1!
1"
0#
1-
1.
0,
1/
1+
1$
#175000
0!
0"
1#
0-
0.
1,
0/
0+
0$
#180000
1!
0#
1-
0,
#185000
1#
1,
1/
1+
1$
#190000
0#
0,
0/
0+
0$
#195000
1"
0!
1#
1.
0-
1,
#200000
0"
0#
0.
0,
#205000
1#
1,
#210000
1"
0#
1.
0,
1/
1+
1$
#215000
1#
1,
0/
0+
0$
#220000
0#
0,
1/
1+
1$
#225000
0"
1#
0.
1,
0/
0+
0$
#230000
1!
1"
0#
1-
1.
0,
1/
1+
1$
#235000
0!
1#
0-
1,
0/
0+
0$
#240000
0"
1!
0#
0.
1-
0,
#245000
1"
0!
1#
1.
0-
1,
#250000
0"
0#
0.
0,
#255000
1!
1"
1#
1-
1.
1,
1/
1+
1$
#260000
0!
0#
0-
0,
#265000
1#
1,
0/
0+
0$
#270000
1!
0#
1-
0,
1/
1+
1$
#275000
0!
1#
0-
1,
0/
0+
0$
#280000
1!
0#
1-
0,
1/
1+
1$
#285000
0"
1#
0.
1,
#290000
0!
1"
0#
0-
1.
0,
#295000
0"
1#
0.
1,
0/
0+
0$
#300000
1"
0#
1.
0,
1/
1+
1$
#305000
1!
0"
1#
1-
0.
1,
#310000
0!
1"
0#
0-
1.
0,
#315000
1#
1,
0/
0+
0$
#320000
0#
0,
1/
1+
1$
#325000
1#
1,
0/
0+
0$
#330000
1!
0#
1-
0,
1/
1+
1$
#335000
1#
1,
#340000
0!
0#
0-
0,
#345000
1!
1#
1-
1,
#350000
0"
0!
0#
0.
0-
0,
0/
0+
0$
#355000
1"
1!
1#
1.
1-
1,
1/
1+
1$
#360000
0#
0,
#365000
1#
1,
#370000
0"
0!
0#
0.
0-
0,
0/
0+
0$
#375000
1"
1!
1#
1.
1-
1,
1/
1+
1$
#380000
0!
0#
0-
0,
#385000
0"
1#
0.
1,
0/
0+
0$
#390000
1!
1"
0#
1-
1.
0,
1/
1+
1$
#395000
0!
1#
0-
1,
0/
0+
0$
#400000
0#
0,
1/
1+
1$
#405000
1#
1,
0/
0+
0$
#410000
0"
1!
0#
0.
1-
0,
#415000
1#
1,
1/
1+
1$
#420000
1"
0#
1.
0,
#425000
0!
0"
1#
0-
0.
1,
0/
0+
0$
#430000
1"
0#
1.
0,
1/
1+
1$
#435000
1#
1,
0/
0+
0$
#440000
1!
0"
0#
1-
0.
0,
#445000
1"
1#
1.
1,
1/
1+
1$
#450000
0!
0"
0#
0-
0.
0,
0/
0+
0$
#455000
1"
1#
1.
1,
#460000
0"
0#
0.
0,
#465000
1!
1"
1#
1-
1.
1,
1/
1+
1$
#470000
0!
0#
0-
0,
#475000
1#
1,
0/
0+
0$
#480000
1!
0#
1-
0,
1/
1+
1$
#485000
0"
0!
1#
0.
0-
1,
0/
0+
0$
#490000
0#
0,
#495000
1!
1#
1-
1,
1/
1+
1$
#500000
1"
0!
0#
1.
0-
0,
#505000
0"
1!
1#
0.
1-
1,
#510000
1"
0!
0#
1.
0-
0,
#515000
0"
1#
0.
1,
0/
0+
0$
#520000
1"
0#
1.
0,
1/
1+
1$
#525000
1!
1#
1-
1,
#530000
0"
0!
0#
0.
0-
0,
0/
0+
0$
#535000
1"
1!
1#
1.
1-
1,
1/
1+
1$
#540000
0!
0#
0-
0,
#545000
0"
1#
0.
1,
0/
0+
0$
#550000
0#
0,
#555000
1!
1#
1-
1,
1/
1+
1$
#560000
1"
0#
1.
0,
#565000
0!
1#
0-
1,
0/
0+
0$
#570000
0"
0#
0.
0,
#575000
1!
1"
1#
1-
1.
1,
1/
1+
1$
#580000
0!
0"
0#
0-
0.
0,
0/
0+
0$
#585000
1#
1,
#590000
0#
0,
#595000
1"
1#
1.
1,
#600000
1!
0"
0#
1-
0.
0,
#605000
0!
1"
1#
0-
1.
1,
#610000
1!
0#
1-
0,
1/
1+
1$
#615000
0"
1#
0.
1,
#620000
0!
1"
0#
0-
1.
0,
#625000
1!
1#
1-
1,
#630000
0!
0#
0-
0,
#635000
1!
1#
1-
1,
#640000
0"
0#
0.
0,
0/
0+
0$
#645000
0!
1#
0-
1,
#650000
1"
0#
1.
0,
1/
1+
1$
#655000
1!
0"
1#
1-
0.
1,
#660000
0!
1"
0#
0-
1.
0,
#665000
1!
0"
1#
1-
0.
1,
#670000
0!
1"
0#
0-
1.
0,
#675000
1!
0"
1#
1-
0.
1,
#680000
1"
0#
1.
0,
#685000
0!
0"
1#
0-
0.
1,
0/
0+
0$
#690000
1!
0#
1-
0,
#695000
1"
1#
1.
1,
1/
1+
1$
#700000
0#
0,
#705000
1#
1,
#710000
0#
0,
#715000
0"
1#
0.
1,
#720000
0!
1"
0#
0-
1.
0,
#725000
0"
1#
0.
1,
0/
0+
0$
#730000
1"
0#
1.
0,
1/
1+
1$
#735000
1!
1#
1-
1,
#740000
0"
0#
0.
0,
0/
0+
0$
#745000
0!
1#
0-
1,
#750000
1!
0#
1-
0,
#755000
1"
1#
1.
1,
1/
1+
1$
#760000
0#
0,
#765000
1#
1,
#770000
0"
0#
0.
0,
0/
0+
0$
#775000
0!
1#
0-
1,
#780000
1!
0#
1-
0,
#785000
1"
1#
1.
1,
1/
1+
1$
#790000
0#
0,
#795000
0!
1#
0-
1,
0/
0+
0$
#800000
0"
1!
0#
0.
1-
0,
#805000
1"
0!
1#
1.
0-
1,
#810000
0"
1!
0#
0.
1-
0,
#815000
1"
0!
1#
1.
0-
1,
#820000
1!
0#
1-
0,
1/
1+
1$
#825000
1#
1,
#830000
0!
0#
0-
0,
#835000
1#
1,
0/
0+
0$
#840000
0#
0,
1/
1+
1$
#845000
1#
1,
0/
0+
0$
#850000
0"
0#
0.
0,
#855000
1!
1#
1-
1,
1/
1+
1$
#860000
1"
0#
1.
0,
#865000
0"
1#
0.
1,
#870000
1"
0#
1.
0,
#875000
0!
1#
0-
1,
0/
0+
0$
#880000
0#
0,
1/
1+
1$
#885000
1!
1#
1-
1,
#890000
0#
0,
#895000
0"
0!
1#
0.
0-
1,
0/
0+
0$
#900000
1!
0#
1-
0,
#905000
0!
1#
0-
1,
#910000
1"
1!
0#
1.
1-
0,
1/
1+
1$
#915000
1#
1,
#920000
0#
0,
#925000
0"
0!
1#
0.
0-
1,
0/
0+
0$
#930000
1"
0#
1.
0,
1/
1+
1$
#935000
1#
1,
0/
0+
0$
#940000
0#
0,
1/
1+
1$
#945000
1!
1#
1-
1,
#950000
0"
0!
0#
0.
0-
0,
0/
0+
0$
#955000
1"
1!
1#
1.
1-
1,
1/
1+
1$
#960000
0#
0,
#965000
0!
1#
0-
1,
0/
0+
0$
#970000
1!
0#
1-
0,
1/
1+
1$
#975000
1#
1,
#980000
0!
0#
0-
0,
#985000
0"
1!
1#
0.
1-
1,
#990000
0!
0#
0-
0,
0/
0+
0$
#995000
1"
1!
1#
1.
1-
1,
1/
1+
1$
