projetoULA/simulation/qsim/projetoULA.msim.vcd
$comment
	File created using the following command:
		vcd file projetoULA.msim.vcd -direction
$end
$date
	Sun Mar 28 23:01:42 2021
$end
$version
	ModelSim Version 2020.1
$end
$timescale
	1ps
$end

$scope module AANDB_vlg_vec_tst $end
$var reg 5 ! A [4:0] $end
$var reg 5 " B [4:0] $end
$var wire 1 # s [4] $end
$var wire 1 $ s [3] $end
$var wire 1 % s [2] $end
$var wire 1 & s [1] $end
$var wire 1 ' s [0] $end

$scope module i1 $end
$var wire 1 ( gnd $end
$var wire 1 ) vcc $end
$var wire 1 * unknown $end
$var tri1 1 + devclrn $end
$var tri1 1 , devpor $end
$var tri1 1 - devoe $end
$var wire 1 . s[4]~output_o $end
$var wire 1 / s[3]~output_o $end
$var wire 1 0 s[2]~output_o $end
$var wire 1 1 s[1]~output_o $end
$var wire 1 2 s[0]~output_o $end
$var wire 1 3 B[4]~input_o $end
$var wire 1 4 A[4]~input_o $end
$var wire 1 5 inst~combout $end
$var wire 1 6 B[3]~input_o $end
$var wire 1 7 A[3]~input_o $end
$var wire 1 8 inst1~combout $end
$var wire 1 9 A[2]~input_o $end
$var wire 1 : B[2]~input_o $end
$var wire 1 ; inst2~combout $end
$var wire 1 < A[1]~input_o $end
$var wire 1 = B[1]~input_o $end
$var wire 1 > inst3~combout $end
$var wire 1 ? A[0]~input_o $end
$var wire 1 @ B[0]~input_o $end
$var wire 1 A inst4~combout $end
$upscope $end
$upscope $end
$enddefinitions $end
#0
$dumpvars
b10101 !
b11010 "
0'
0&
0%
0$
1#
0(
1)
x*
1+
1,
1-
1.
0/
00
01
02
13
14
15
16
07
08
19
0:
0;
0<
1=
0>
1?
0@
0A
$end
#5000
b101 !
b1101 !
b1010 "
b1110 "
1:
03
17
04
1;
05
18
1/
0.
10
1%
0#
1$
#10000
b110 "
b11101 !
b10110 "
b10010 "
14
0:
06
13
15
0;
08
0/
00
1.
1#
0%
0$
#15000
b11001 !
b11000 !
b10000 !
b11010 "
b1010 "
b1110 "
1:
16
03
0?
09
07
05
0.
0#
#20000
b10010 !
b10 !
b110 !
b111 !
1?
1<
19
04
1>
1;
10
11
1&
1%
#25000
b1111 "
b1111 !
b11111 "
b11011 "
b1101 !
b1001 !
0<
09
17
1@
0:
13
0>
0;
18
1A
12
1/
00
01
0&
0%
1$
1'
#30000
b11001 "
b11000 "
b1 !
b101 !
19
07
0@
0=
08
0A
02
0/
0$
0'
#35000
b100 !
b11100 "
b110 !
b11101 "
1@
1:
0?
1<
1;
10
1%
#40000
b10101 "
b101 "
b1110 !
b1010 !
b1 "
b1000 !
0<
09
17
0:
06
03
0;
00
0%
#45000
b1001 !
b1001 "
b11001 "
b1 !
b101 !
b11101 "
b111 !
1:
16
13
1?
1<
19
07
1;
1A
12
10
1%
1'
#50000
b11100 "
b1111 !
b1011 !
09
17
0@
0;
18
0A
02
1/
00
0%
1$
0'
#55000
b1010 !
b11101 "
b10 !
b110 !
1@
0?
19
07
1;
08
0/
10
1%
0$
#60000
b10101 "
b10001 "
b111 !
b10000 "
b1111 !
1?
17
0@
0:
06
0;
00
0%
#65000
b11111 !
b11000 "
b11100 "
b11110 !
b11101 "
b10110 !
1@
1:
16
0?
07
14
1;
15
1.
10
1%
1#
#70000
b1101 "
b10100 !
b10000 !
b10001 !
b1100 "
1?
0<
09
0@
03
0;
05
0.
00
0%
0#
#75000
b1000 "
b11001 !
b11000 "
b11000 !
b11001 "
0?
17
1@
0:
13
18
15
1.
1/
1$
1#
#80000
b1000 !
b10001 "
b1010 !
b1 "
b0 "
0@
06
03
1<
04
08
05
0.
0/
0$
0#
#85000
b1110 !
b1111 !
b1000 "
b1101 !
b1001 "
1@
16
1?
0<
19
1A
18
1/
12
1'
1$
#90000
b101 !
b1 !
b0 !
b10 !
0?
1<
09
07
0A
08
0/
02
0'
0$
#95000
b10010 !
b11001 "
b10001 "
b11010 !
b11011 !
b11001 !
06
13
1?
0<
17
14
15
1A
12
1.
1#
1'
#100000
b10000 "
b1001 !
b11000 "
b1011 !
1<
04
0@
16
05
0A
18
1/
02
0.
0#
0'
1$
#105000
b11010 "
b1111 !
b1101 !
0<
19
1=
#110000
b101 !
b100 !
b10100 !
b11000 "
b10110 !
0=
0?
1<
07
14
08
15
1.
0/
0$
1#
#115000
b11001 "
b110 !
b11011 "
04
1@
1=
05
1>
11
0.
0#
1&
#120000
b1011 "
b111 !
b101 !
b1010 "
b10101 !
1?
0<
14
0@
03
0>
01
0&
#125000
b10001 !
b11001 !
b11000 !
0?
09
17
18
1/
1$
#130000
b1110 "
b110 "
b100 "
b10100 "
b11001 !
1?
0=
1:
06
13
08
15
1.
0/
0$
1#
#135000
b10101 "
b10001 !
b10001 "
b11001 "
b10000 !
0?
07
1@
0:
16
#140000
b10010 !
b10 !
b1010 !
b11101 "
b1011 !
1:
1?
1<
17
04
1A
18
05
0.
1/
12
1'
1$
0#
#145000
b1111 !
b1101 "
b1100 "
b1101 !
b11101 !
b10101 !
b1000 "
0@
0:
03
0<
19
07
14
0A
08
0/
02
0'
0$
#150000
b1010 "
b11010 "
b101 !
04
1=
13
#155000
b10010 "
b100 !
b10011 "
b110 !
b1110 !
b11 "
b11110 !
0?
1<
17
14
1@
06
03
1>
11
1&
#160000
b11010 !
b11000 !
b10000 !
0<
09
07
0>
01
0&
#165000
b111 "
b101 "
b1101 "
b11101 "
b10010 !
b11010 !
1<
17
0=
1:
16
13
18
15
1.
1/
1$
1#
#170000
b11011 !
b11100 "
b1011 !
b1100 "
b11 !
0@
03
1?
07
04
05
08
0/
0.
0#
0$
#175000
b1 !
b10001 !
b11100 "
13
0<
14
15
1.
1#
#180000
b10101 !
b11000 "
b11010 "
b10010 "
b10100 !
b10011 "
b11100 !
b11 "
1@
1=
0:
06
03
0?
19
17
05
0.
0#
#185000
b11000 !
b111 "
b101 "
b100 "
0@
0=
1:
09
#190000
b11010 !
b1010 !
b10 !
b10100 "
b110 !
b10101 "
1@
13
1<
19
07
04
1;
10
1%
#195000
b11101 "
b111 !
b11001 "
b1111 !
b1001 "
1?
17
0:
16
03
1A
18
0;
00
1/
12
1'
1$
0%
#200000
b1011 "
b11111 !
b11011 !
b11 "
b11010 !
b10010 !
b10011 "
0?
09
07
14
1=
06
13
0A
08
15
1>
11
1.
0/
02
0'
0$
1#
1&
#205000
b10000 !
b10010 "
b11010 "
b1010 "
0@
16
03
0<
05
0>
01
0.
0#
0&
#210000
b1110 "
b0 !
b100 !
b1100 !
b1110 !
b110 "
1<
19
17
04
1:
06
1>
1;
10
11
1&
1%
#215000
b100 "
b1111 !
b0 "
b1011 !
b11 !
b1 !
1?
0<
09
07
0=
0:
0>
0;
00
01
0&
0%
#220000
b10000 "
b10001 !
b11000 "
b11010 "
b10000 !
b10100 !
b11100 !
0?
19
17
14
1=
16
13
18
15
1.
1/
1$
1#
#225000
b11011 "
b1011 "
b1100 !
b1001 "
b1101 !
b1001 !
1?
09
04
1@
0=
03
1A
05
0.
12
1'
0#
#230000
b1101 "
b1011 !
b101 "
b11 !
b10101 "
b10011 !
b10010 !
0?
1<
07
14
1:
06
13
0A
08
15
1.
0/
02
0'
0$
1#
#235000
b10110 !
b10001 "
b10100 !
b11001 "
b11100 !
0:
16
0<
19
17
18
1/
1$
#240000
b11000 "
b11010 "
b1010 "
b11000 !
b1110 "
09
0@
1=
1:
03
05
0.
0#
#245000
b1000 !
b1010 !
b110 "
b10 !
b111 "
b101 "
b10101 "
b110 !
1@
0=
06
13
1<
19
07
04
08
1;
10
0/
0$
1%
#250000
b11101 "
b11100 "
b11110 "
b1110 "
0@
1=
16
03
1>
11
1&
#255000
b1010 "
b10 !
b1011 "
09
1@
0:
0;
00
0%
#260000
b11 !
b1 !
b1001 !
b11 "
b1 "
b10001 "
b10000 "
0@
0=
06
13
1?
0<
17
0>
01
0&
#265000
b11001 !
b11000 "
b1000 "
b1001 "
1@
16
03
14
1A
18
1/
12
1'
1$
#270000
b1011 "
b11011 "
1=
13
15
1.
1#
#275000
b11101 !
b11100 !
b10100 !
b10011 "
06
0?
19
07
08
0A
02
0/
0$
0'
#280000
b10111 "
b10110 !
b10010 !
b11010 !
1<
09
17
1:
1>
11
1&
#285000
b10110 "
b10100 "
b100 "
0@
0=
03
0>
05
0.
01
0&
0#
#290000
b1010 !
b1011 !
b1001 !
b1101 !
b110 "
1=
1?
0<
19
04
1;
10
1%
#295000
b1110 "
b1010 "
b101 !
b1011 "
b10101 !
07
14
1@
0:
16
1A
0;
00
12
1'
0%
#300000
b11011 "
b10100 !
b10110 !
b10010 !
b11001 "
b11101 "
b11010 !
b1010 !
0?
1<
09
17
04
0=
1:
13
0A
18
1/
02
0'
1$
#305000
b10101 "
b10100 "
b1011 !
b1001 !
b10000 "
b1 !
b10001 !
1?
0<
07
14
0@
0:
06
08
15
1.
0/
0$
1#
#310000
b0 "
b10101 !
b1 "
b10100 !
0?
19
1@
03
05
0.
0#
#315000
b11 "
b100 !
b10011 "
b0 !
09
04
1=
13
#320000
b11011 "
b10 !
b11010 "
b1010 "
1<
0@
16
03
1>
11
1&
#325000
b1110 "
b1010 !
b1100 "
b11010 !
b100 "
b101 "
b10101 "
17
14
1@
0=
1:
06
13
15
0>
01
1.
1#
0&
#330000
b11110 !
b10111 "
b1110 !
b11111 "
b11110 "
0@
1=
16
19
04
1>
18
1;
05
0.
10
1/
11
1&
1$
1%
0#
#335000
b1100 !
b100 !
b0 !
b11100 "
b11101 "
1@
0=
0<
09
07
0>
0;
08
0/
00
01
0&
0%
0$
#340000
b1 !
b11001 "
b10001 !
b11001 !
b11011 "
b11010 "
0@
1=
0:
1?
17
14
18
15
1.
1/
1$
1#
#345000
b1010 "
b10 "
b11101 !
b11100 !
0?
19
06
03
08
05
0.
0/
0$
0#
#350000
b11110 !
b110 "
b100 "
b10100 "
b11010 !
b11011 !
0=
1:
13
1?
1<
09
15
1.
1#
#355000
b1011 !
b10101 "
b11101 "
b11001 "
b11011 "
b1010 !
1@
1=
0:
16
0?
04
1>
18
05
0.
1/
11
1&
1$
0#
#360000
b10 !
b0 !
b100 !
b11010 "
b11000 "
0@
0=
0<
19
07
0>
08
0/
01
0&
0$
#365000
b1000 "
b10100 !
b1100 "
b10101 !
b10111 !
b10011 !
b1101 "
1?
1<
09
14
1@
1:
03
1A
12
1'
#370000
b11011 !
b1111 "
b11111 "
b11011 "
b11001 !
b11010 "
0@
1=
0:
13
0<
17
0A
15
18
1/
1.
02
0'
1#
1$
#375000
b10010 "
b11000 !
b11100 !
b10100 !
b10 "
b11 "
0?
19
07
1@
06
03
08
05
0.
0/
0$
0#
#380000
b111 "
b1111 "
b11100 !
b1110 "
17
0@
1:
16
18
1;
10
1/
1$
1%
#385000
b1010 "
b10100 !
b1011 "
07
1@
0:
08
0;
00
0/
0$
0%
#390000
b100 !
b1001 "
b11001 "
b10001 "
b10000 "
0@
0=
06
13
04
#395000
b110 !
b10100 "
b1110 !
b11110 !
b11100 "
1:
16
1<
17
14
1;
18
15
1.
1/
10
1%
1$
1#
#400000
b11111 !
b11011 !
b11110 "
b1110 "
b10011 !
1=
03
1?
09
07
1>
05
0;
08
0/
00
0.
11
1&
0#
0%
0$
#405000
b10001 !
b1010 "
b1 !
b1000 "
b11000 "
b1001 !
0=
0:
13
0<
17
04
0>
18
1/
01
0&
1$
#410000
b1011 !
b11011 !
b10011 !
1<
07
14
08
15
1.
0/
0$
1#
#415000
b11001 "
b10001 "
b10101 "
b101 "
b10001 !
0<
1@
1:
06
03
1A
05
0.
12
1'
0#
#420000
b10000 !
b10100 !
b11100 !
b100 "
b1100 "
0@
16
0?
19
17
0A
18
1;
10
1/
02
0'
1$
1%
#425000
b1110 "
b1010 "
b11010 "
b11110 !
b11010 !
b10010 !
b10010 "
1<
09
07
1=
0:
06
13
1>
0;
08
15
1.
0/
00
11
1&
0%
0$
1#
#430000
b10011 !
b10011 "
b10111 "
b111 "
b10111 !
b11111 !
b1111 "
1@
1:
16
03
1?
19
17
1A
1;
18
05
0.
1/
10
12
1'
1%
1$
0#
#435000
b1011 "
b11011 "
b10111 !
07
0:
13
08
0;
15
1.
00
0/
0$
0%
1#
#440000
b11001 "
b10110 !
b11101 "
b1101 "
0?
0=
1:
03
0A
0>
1;
05
0.
10
01
02
0'
0&
1%
0#
#445000
b110 !
b100 !
b1100 "
b0 !
b1000 !
b1001 !
b1000 "
0@
0:
1?
0<
09
17
04
0;
18
1/
00
0%
1$
#450000
b1010 "
b11001 !
b11101 !
19
14
1=
#455000
b10 "
b11100 !
b110 "
b100 "
0?
0=
1:
06
1;
08
0/
10
1%
0$
#460000
b101 "
b10100 !
b100 !
b0 !
b1 "
b11 "
09
07
04
1@
1=
0:
0;
00
0%
#465000
b10011 "
b11011 "
b11010 "
b10000 !
b10100 !
b11000 "
19
14
0@
0=
16
13
15
1.
1#
#470000
b10110 !
b10111 !
b111 !
b11010 "
1=
1?
1<
04
1>
05
0.
11
1&
0#
#475000
b1111 !
b1010 "
b10 "
b1101 !
b1100 !
06
03
0?
0<
17
0>
01
0&
#480000
b11100 !
b10010 "
b11010 "
b11110 !
16
13
1<
14
18
15
1>
11
1.
1/
1$
1#
1&
#485000
b11111 !
b1010 "
03
1?
05
0.
0#
#490000
b1110 "
b11011 !
b11001 !
b11000 !
b11110 "
0?
0<
09
1:
13
0>
15
1.
01
0&
1#
#495000
b11111 "
b1000 !
b10111 "
b10011 "
b1010 !
b1011 !
1?
1<
04
1@
0:
06
1A
1>
05
08
0/
0.
11
12
1'
1&
0#
0$
#500000
b11 "
b11011 !
b111 "
b11001 !
0<
14
1:
03
0>
01
0&
#505000
b101 "
b11101 !
b1101 "
b11100 !
b1100 !
0?
19
04
0=
16
0A
1;
18
1/
10
02
0'
1%
1$
#510000
b11101 "
b11111 "
b1000 !
b1001 !
b11001 !
1?
09
14
1=
13
1A
0;
15
1.
00
12
1'
0%
1#
#515000
b10001 !
b10011 !
b11101 "
b10111 !
b10110 !
0=
0?
1<
19
07
0A
1;
08
0/
10
02
0'
1%
0$
#520000
b11100 "
b11000 "
b11110 !
b11010 "
17
0@
1=
0:
18
1>
0;
00
11
1/
1$
1&
0%
#525000
b1010 "
b1110 !
b1100 !
b1101 !
b101 !
b1000 "
1?
0<
07
04
0=
03
0>
08
05
0.
0/
01
0&
0$
0#
#530000
b0 "
b1 !
b100 "
b10100 "
b10001 !
b10000 !
b11000 !
b10110 "
0?
09
17
14
1=
1:
06
13
15
1.
1#
#535000
b10111 "
b11111 "
b11011 "
b1000 !
b1001 !
b11001 "
1?
04
1@
0=
0:
16
1A
05
18
1/
0.
12
1'
0#
1$
#540000
b1011 !
b1111 !
b111 !
b10001 "
b10111 !
b10110 !
06
0?
1<
19
07
14
08
0A
15
1.
02
0/
0$
0'
1#
#545000
b11001 "
b10111 !
1?
16
1A
12
1'
#550000
b11101 "
b11111 !
17
1:
18
1;
10
1/
1$
1%
#555000
b11100 "
b11101 !
b1101 !
b11000 "
b101 !
0<
07
04
0@
0:
08
05
0A
0;
00
02
0.
0/
0$
0#
0'
0%
#560000
b1000 "
b1010 "
b1 !
b10 "
b0 !
b10 !
0?
1<
09
1=
06
03
1>
11
1&
#565000
b11 "
b111 "
b10111 "
b10101 "
b11 !
1?
1@
0=
1:
13
1A
0>
01
12
1'
0&
#570000
b1011 !
b11101 "
b1001 !
b1101 "
16
03
0<
17
18
1/
1$
#575000
b11001 !
b11101 !
b1100 "
b1000 "
b10101 !
0@
0:
19
07
14
0A
08
0/
02
0'
0$
#580000
b0 "
b101 !
b100 "
b1101 !
17
04
1:
06
1;
10
1%
#585000
b1100 !
b10100 "
b1000 !
b11100 "
b11000 !
b10000 !
16
13
0?
09
07
14
15
0;
00
1.
1#
0%
#590000
b11110 "
b10010 !
b11111 "
b10011 !
1?
1<
1@
1=
1A
1>
11
12
1'
1&
#595000
b1111 "
b111 "
b10010 !
0?
06
03
0A
05
0.
02
0'
0#
#600000
b11 "
b10110 !
b1 "
b10001 "
b10111 !
1?
19
0=
0:
13
1A
0>
15
1.
01
12
1'
0&
1#
#605000
b10000 "
b10100 "
b10110 "
b110 "
0@
1=
1:
03
0A
1>
1;
05
0.
10
11
02
0'
1&
1%
0#
#610000
b1110 "
b10011 !
b1111 "
b11111 "
09
1@
16
13
0;
1A
15
1.
12
00
0%
1'
1#
#615000
b11 !
b1011 !
b1001 !
b1000 !
b11101 "
b1101 "
0=
03
0?
0<
17
04
0>
05
0A
18
1/
02
0.
01
0&
0#
0'
1$
#620000
b1001 "
b1 "
b0 "
b0 !
b10 "
b10010 "
07
0@
1=
0:
06
13
08
0/
0$
#625000
b100 !
b10100 !
b10011 "
1@
19
14
15
1.
1#
#630000
b10111 "
b11111 "
b100 !
b11110 "
04
0@
1:
16
05
1;
10
0.
0#
1%
#635000
b110 !
b111 !
b1111 !
b11100 "
b1011 !
b11000 "
0=
0:
1?
1<
09
17
0;
18
1/
00
0%
1$
#640000
b1000 "
b11011 !
b1001 "
b11001 !
0<
14
1@
03
1A
12
1'
#645000
b1 "
b101 "
b10101 "
b10100 "
b11011 !
1<
0@
1:
06
13
0A
08
15
1.
0/
02
0'
0$
1#
#650000
b11010 !
b10010 !
b10110 "
b10010 "
1=
0:
0?
07
1>
11
1&
#655000
b10 !
b11010 "
b1010 "
b1011 "
b0 !
b1001 "
1@
0=
16
03
0<
04
0>
05
0.
01
0&
0#
#660000
b100 !
b101 !
b1101 !
b11101 !
b1000 "
b1010 "
0@
1=
1?
19
17
14
18
1/
1$
#665000
b1110 "
b110 "
b11001 !
b11000 !
b10000 !
b0 !
b111 "
0?
09
07
04
1@
1:
06
08
0/
0$
#670000
b10 !
b101 "
b1101 "
b110 !
b1110 !
b11110 !
0=
16
1<
19
17
14
18
1;
10
1/
1$
1%
#675000
b1111 "
b10110 !
b110 !
07
04
1=
08
1>
11
0/
0$
1&
#680000
b11111 "
b11011 "
b111 !
b10011 "
b10001 "
b10111 !
1?
14
0=
0:
06
13
1A
15
0>
0;
00
01
1.
12
1'
1#
0&
0%
#685000
b1 "
b101 "
b10110 !
b1101 "
b1111 "
b110 !
0?
04
1=
1:
16
03
0A
05
1>
1;
10
11
0.
02
0'
0#
1&
1%
#690000
b10 !
b1010 !
b11111 "
b1011 !
b10111 "
b11011 !
06
13
1?
09
17
14
15
1A
0;
00
12
1.
1#
1'
0%
#695000
b10101 "
b101 "
b1011 !
04
0=
03
05
0>
01
0.
0#
0&
#700000
b1001 !
b1 "
b1101 !
b101 !
b100 !
b1001 "
b11001 "
0:
16
13
0?
0<
19
07
0A
02
0'
#705000
b11000 "
b110 !
b10 !
b1010 !
1<
09
17
0@
18
1/
1$
#710000
b11010 !
b11011 !
b10000 "
b10001 "
1@
06
1?
14
1A
08
15
1.
0/
12
1'
0$
1#
#715000
b10011 "
b1011 !
b1010 !
0?
04
1=
0A
05
1>
11
0.
02
0'
0#
1&
#720000
b1000 !
b1100 !
b100 !
b11011 "
b10100 !
b10101 !
16
1?
0<
19
07
14
1A
0>
15
1.
01
12
1'
0&
1#
#725000
b11111 "
b11110 "
b10111 !
b11111 !
b1111 !
b1110 !
0?
1<
17
04
0@
1:
0A
1>
18
05
1;
10
0.
1/
11
02
0'
1&
1$
0#
1%
#730000
b11100 "
b10100 "
b1100 !
b100 !
b101 !
1?
0<
07
0=
06
0>
08
0/
01
0&
0$
#735000
b100 "
b0 "
b1 "
b10101 !
b1001 "
b10111 !
b10110 !
0?
1<
14
1@
0:
16
03
0;
00
0%
#740000
b10010 !
b11010 !
b11001 "
b11101 "
b10101 "
1:
06
13
09
17
15
1.
1#
#745000
b10100 "
b11011 !
b10011 !
1?
07
0@
#750000
b10110 "
b11 !
b1 !
b101 !
b10010 "
b10011 "
0<
19
04
1@
1=
0:
05
1A
12
0.
0#
1'
#755000
b11 "
b1101 !
b11101 !
b10 "
17
14
0@
03
0A
02
0'
#760000
b11100 !
b11110 !
b10010 "
b10110 !
b10011 "
1@
13
0?
1<
07
15
1>
11
1.
1#
1&
#765000
b11011 "
b11001 "
b11101 "
b10111 !
b10101 !
b11100 "
1?
0<
0@
0=
1:
16
0>
1;
10
01
0&
1%
#770000
b101 !
b1100 "
03
04
05
0.
0#
#775000
b1101 !
b1100 !
b1110 !
b1101 "
b11110 !
1@
0?
1<
17
14
18
1/
1$
#780000
b101 "
b111 "
b10111 "
b11111 !
b11101 !
b10110 "
1?
0<
0@
1=
06
13
08
15
1.
0/
0$
1#
#785000
b11001 !
b10010 "
b11010 "
b11000 "
b1000 "
b11011 !
b1001 "
1@
0=
0:
16
03
1<
09
1A
0;
18
05
0.
1/
00
12
1'
0%
1$
0#
#790000
b10011 !
b10111 !
b11001 "
b11000 "
0@
13
19
07
0A
15
08
0/
1.
02
0'
1#
0$
#795000
b111 !
b11100 "
b1111 !
b1011 !
b11101 "
1@
1:
09
17
04
1A
18
05
0.
1/
12
1'
1$
0#
#800000
b11011 !
b10011 !
07
14
08
15
1.
0/
0$
1#
#805000
b10010 !
b11111 "
b10000 !
b1111 "
b1011 "
b11000 !
1=
0:
03
0?
0<
17
05
0A
18
1/
02
0.
0#
0'
1$
#810000
b11100 !
b1100 !
b1111 "
b100 !
1:
19
07
04
1;
08
0/
10
1%
0$
#815000
b111 "
b110 "
b100 "
b10100 !
b0 "
14
0@
0=
0:
06
0;
00
0%
#820000
b10101 !
b10111 !
b10000 "
b11000 "
b11001 "
b11011 "
b11111 "
1@
1=
1:
16
13
1?
1<
1A
1>
1;
15
1.
10
11
12
1'
1&
1%
1#
#825000
b11111 !
b11110 !
b1111 "
b1110 "
b1010 "
0@
0:
03
0?
17
0A
0;
05
18
1/
0.
00
02
0'
0%
0#
1$
#830000
b11100 !
b10 "
b10100 !
b10010 "
b10110 "
1:
06
13
0<
07
1;
08
15
0>
01
1.
0/
10
1%
0$
1#
0&
#835000
b100 !
b101 !
b111 !
b10010 "
0:
1?
1<
04
0;
1>
05
0.
11
00
0%
1&
0#
#840000
b11 !
b10011 "
b11011 "
b1011 "
b10011 !
1@
16
03
09
14
1A
12
1'
#845000
b11011 !
b11001 !
b1111 "
b1110 "
b1001 !
0@
1:
0<
17
04
0A
0>
18
1/
01
02
0'
0&
1$
#850000
b1100 "
b1000 !
b11100 "
b0 !
b11101 "
0?
07
1@
0=
13
08
0/
0$
#855000
b100 !
b10101 "
b10100 !
b10111 "
b111 "
1=
06
03
19
14
1;
10
1%
#860000
b11 "
b10101 !
b11101 !
b11001 !
1?
09
17
0:
1A
0;
00
12
1'
0%
#865000
b1001 !
b1 "
b10001 "
b10101 "
0=
1:
13
04
#870000
b10100 "
b1000 !
b11000 !
0?
14
0@
0A
15
1.
02
0'
1#
#875000
b11010 !
b11100 "
b1100 "
b1101 "
b11011 !
1@
16
03
1?
1<
1A
18
05
0.
1/
12
1'
1$
0#
#880000
b1111 "
b1011 "
b11 "
b10011 "
b10010 "
b11010 !
0?
0@
1=
0:
06
13
0A
1>
08
15
1.
0/
11
02
0'
1&
0$
1#
#885000
b10010 !
b10 !
b0 !
b10011 "
1@
0<
07
04
0>
05
0.
01
0&
0#
#890000
b100 !
b10111 "
b101 !
b1101 !
b11101 !
b11111 !
1:
1?
1<
19
17
14
1;
1A
1>
15
1.
11
12
10
1%
1'
1&
1#
#895000
b11111 "
b1111 "
b1110 "
b10111 !
b111 !
b101 !
0<
07
04
0@
16
03
0>
05
0A
02
0.
01
0&
0#
0'
#900000
b1100 "
b1 !
b1000 "
b11000 "
b11001 "
b10001 !
b10011 !
1<
09
14
1@
0=
0:
13
0;
15
1A
12
1.
00
0%
1#
1'
#905000
b11011 "
b10111 !
b1011 "
b1010 "
19
0@
1=
03
0A
1>
05
0.
11
02
0'
1&
0#
#910000
b10 "
b11111 !
b110 "
b11101 !
b111 "
0<
17
1@
1:
06
0>
1A
1;
10
12
01
0&
1'
1%
#915000
b1101 !
b101 "
b1001 !
b1011 !
0=
1<
09
04
0;
00
0%
#920000
b1010 !
b10 !
b100 "
b110 "
b110 !
b100 !
0@
1=
0?
0<
19
07
0A
1;
10
02
0'
1%
#925000
b10110 "
b11110 "
b11010 "
b101 !
b11000 "
b1 !
b11 !
1?
1<
09
0=
0:
16
13
0;
00
0%
#930000
b1011 !
b11001 "
b1001 "
b1 "
b101 "
b111 "
1@
1=
1:
06
03
17
1A
1>
11
12
1'
1&
#935000
b11011 !
b11010 !
b11110 !
b110 "
b1110 "
0@
16
0?
19
14
0A
18
1;
10
1/
02
0'
1$
1%
#940000
b1110 !
b1010 !
b110 "
06
09
04
08
0;
00
0/
0$
0%
#945000
b10 !
b10110 "
b10100 "
b11 !
b10011 !
b11100 "
0=
16
13
1?
07
14
0>
15
1.
01
0&
1#
#950000
b10001 !
b11000 "
b11001 "
b11001 !
b1001 "
b1011 "
1@
1=
0:
03
0<
17
1A
05
18
1/
0.
12
1'
0#
1$
#955000
b11000 !
b11010 !
b10010 !
b11011 "
b11001 "
0=
13
0?
1<
07
15
0A
08
0/
02
1.
1#
0'
0$
#960000
b10110 !
b110 !
b10001 "
b10000 "
b111 !
b1111 !
b0 "
b10 "
0@
1=
06
03
1?
19
17
04
1>
05
0.
11
1&
0#
#965000
b110 "
b1101 !
b11101 !
b1110 "
b11100 !
b11110 "
b11100 "
0?
0<
14
0=
1:
16
13
0>
15
1;
18
1/
10
1.
01
0&
1#
1%
1$
#970000
b11101 "
b10100 !
b11001 "
b10110 !
b110 !
1<
07
04
1@
0:
08
05
0;
00
0.
0/
0$
0#
0%
#975000
b10 !
b1001 "
b1010 !
b1101 "
1:
03
09
17
18
1/
1$
#980000
b101 "
b111 "
b110 "
b1000 !
b1100 !
b10110 "
0<
19
0@
1=
06
13
1;
08
0/
10
1%
0$
#985000
b1101 !
b11101 !
b10101 !
b10010 "
b11010 "
b11000 "
b11001 "
b10111 !
b10011 !
b1001 "
1@
0=
0:
16
03
1?
1<
09
07
14
1A
0;
00
12
1'
0%
#990000
b10010 !
b1000 "
b10110 !
0@
0?
19
0A
02
0'
#995000
b110 !
b1110 !
b1010 "
b1011 "
b1010 !
1@
1=
09
17
04
1>
18
1/
11
1&
1$
