projetoULA/simulation/qsim/projetoULA.msim.vcd
$comment
	File created using the following command:
		vcd file projetoULA.msim.vcd -direction
$end
$date
	Mon Mar 29 00:27:35 2021
$end
$version
	ModelSim Version 2020.1
$end
$timescale
	1ps
$end

$scope module AANDB_vlg_vec_tst $end
$var reg 5 ! A [4:0] $end
$var reg 5 " B [4:0] $end
$var wire 1 # s [4] $end
$var wire 1 $ s [3] $end
$var wire 1 % s [2] $end
$var wire 1 & s [1] $end
$var wire 1 ' s [0] $end

$scope module i1 $end
$var wire 1 ( gnd $end
$var wire 1 ) vcc $end
$var wire 1 * unknown $end
$var tri1 1 + devclrn $end
$var tri1 1 , devpor $end
$var tri1 1 - devoe $end
$var wire 1 . s[4]~output_o $end
$var wire 1 / s[3]~output_o $end
$var wire 1 0 s[2]~output_o $end
$var wire 1 1 s[1]~output_o $end
$var wire 1 2 s[0]~output_o $end
$var wire 1 3 B[4]~input_o $end
$var wire 1 4 A[4]~input_o $end
$var wire 1 5 inst~combout $end
$var wire 1 6 B[3]~input_o $end
$var wire 1 7 A[3]~input_o $end
$var wire 1 8 inst1~combout $end
$var wire 1 9 A[2]~input_o $end
$var wire 1 : B[2]~input_o $end
$var wire 1 ; inst2~combout $end
$var wire 1 < A[1]~input_o $end
$var wire 1 = B[1]~input_o $end
$var wire 1 > inst3~combout $end
$var wire 1 ? A[0]~input_o $end
$var wire 1 @ B[0]~input_o $end
$var wire 1 A inst4~combout $end
$upscope $end
$upscope $end
$enddefinitions $end
#0
$dumpvars
b11 !
b10011 "
1'
1&
0%
0$
0#
0(
1)
x*
1+
1,
1-
0.
0/
00
11
12
13
04
05
06
07
08
09
0:
0;
1<
1=
1>
1?
1@
1A
$end
#5000
b1011 !
b1111 !
b1101 !
b1100 !
b11 "
03
0?
0<
19
17
0A
0>
01
02
0'
0&
#10000
b1011 "
b1111 "
b100 !
b0 !
b11111 "
09
07
1:
16
13
#15000
b10000 !
b10100 !
b1111 "
03
19
14
1;
10
1%
#20000
b1101 "
b1100 "
b10101 !
b11101 !
b11001 !
b11100 "
1?
09
17
0@
0=
13
0;
18
15
1.
1/
00
0%
1$
1#
#25000
b11011 !
b11000 "
b10011 !
b1000 "
0:
03
1<
07
05
08
0/
0.
0#
0$
#30000
b0 "
b11 !
b10 "
b11 "
b111 "
b10111 "
04
1@
1=
1:
06
13
1A
1>
11
12
1'
1&
#35000
b10 !
b110 !
b1110 !
b11111 "
b11101 "
b11001 "
0=
0:
16
0?
19
17
0>
18
0A
02
1/
01
0&
1$
0'
#40000
b11110 !
b11111 !
b11011 "
b11111 "
1=
1:
1?
14
1>
1;
1A
15
1.
12
10
11
1&
1%
1'
1#
#45000
b11110 "
b11011 !
b10110 "
b1011 !
b10010 "
09
04
0@
0:
06
0;
05
0A
08
0/
02
0.
00
0%
0#
0'
0$
#50000
b1001 !
b10 "
b1 !
b0 "
b1 "
b101 !
b1001 "
b10101 !
b1101 "
1@
0=
1:
16
03
0<
19
07
14
1A
0>
1;
10
01
12
1'
0&
1%
#55000
b10100 !
b10110 !
b11101 "
b11110 !
b11010 !
b10101 "
b1010 !
b10001 "
0:
06
13
0?
1<
09
17
04
0;
0A
02
00
0%
0'
#60000
b1011 !
b1001 !
b11001 !
1?
0<
14
1A
15
1.
12
1'
1#
#65000
b11101 !
b11001 "
b11101 "
b11100 !
b11110 !
1:
16
0?
1<
19
1;
18
0A
02
1/
10
1%
1$
0'
#70000
b11100 "
b1110 !
b1010 !
b10100 "
09
04
0@
06
0;
05
08
0/
0.
00
0%
0#
0$
#75000
b10110 "
b1000 !
b1100 !
0<
19
1=
1;
10
1%
#80000
b110 "
b100 !
b10100 !
b100 "
07
14
0=
03
#85000
b10101 !
b101 "
b10111 !
b11111 !
b1111 !
b111 "
1@
1=
1?
1<
17
04
1A
1>
11
12
1'
1&
#90000
b11 "
b1101 !
b101 !
0<
07
0:
0>
0;
00
01
0&
0%
#95000
b1011 "
b1 !
b0 !
b1010 "
0?
09
0@
16
0A
02
0'
#100000
b11010 "
b10000 !
b11110 "
b10010 !
b10110 "
b10011 !
b10111 "
1?
1<
14
1@
1:
06
13
1A
1>
15
1.
11
12
1'
1&
1#
#105000
b10101 "
b11011 !
b11111 !
b11101 "
19
17
0=
16
1;
18
0>
01
1/
10
1%
1$
0&
#110000
b1101 "
b1001 "
b1000 "
b1010 "
b10111 !
b10011 !
09
07
0@
1=
0:
03
0;
08
0A
1>
05
0.
11
02
0/
00
0%
0$
0'
1&
0#
#115000
b11 !
b1 !
b10 "
b10010 "
b10110 "
b10100 "
b101 !
0=
1:
06
13
0<
19
04
0>
1;
10
01
0&
1%
#120000
b100 !
b10100 !
b11100 "
b1100 "
b1110 "
1=
16
03
0?
14
#125000
b1111 "
b11100 !
b11110 !
b1011 "
b1110 !
b1001 "
1<
17
04
1@
0=
0:
18
0;
00
1/
1$
0%
#130000
b1010 !
b1011 !
b1 "
b11 !
b101 "
1:
06
1?
09
07
08
1A
12
0/
0$
1'
#135000
b100 "
b10011 !
b110 "
b10111 !
b10110 !
b11110 !
b10 "
0?
19
17
14
0@
1=
0:
0A
1>
11
02
0'
1&
#140000
b10010 "
b11010 "
b11011 "
b11001 "
b11010 !
b11011 !
b10011 !
b11101 "
1?
09
07
1@
0=
1:
16
13
1A
0>
15
1.
01
12
1'
0&
1#
#145000
b11 !
b10 !
b1010 !
b11001 "
0:
0?
17
04
0A
18
05
0.
1/
02
0'
1$
0#
#150000
b1000 !
b10001 "
b10000 "
b1100 !
b11100 !
b10100 !
b10100 "
0@
1:
06
0<
19
07
14
1;
08
15
1.
0/
10
1%
0$
1#
#155000
b100 "
b10101 !
b10111 !
b101 "
b11111 !
1?
1<
17
1@
03
1A
05
0.
12
1'
0#
#160000
b111 "
b1111 "
b11011 !
b1011 !
b1011 "
b1010 !
b10 !
0?
09
07
04
1=
0:
16
0A
0;
1>
11
00
02
0'
0%
1&
#165000
b0 !
b1001 "
b1101 "
b1 !
0=
1:
1?
0<
0>
1A
12
01
0&
1'
#170000
b101 !
b1101 !
b1111 !
b1001 "
b1110 !
0:
0?
1<
19
17
0A
18
1/
02
0'
1$
#175000
b1 "
b1010 !
b10 !
09
07
06
08
0/
0$
#180000
b10001 "
b10010 !
b10101 "
b10011 !
b11011 !
1?
17
14
1:
13
1A
15
1.
12
1'
1#
#185000
b10111 "
b11111 "
b11011 "
b11010 !
0?
1=
0:
16
0A
1>
18
1/
11
02
0'
1&
1$
#190000
b11110 !
b1011 "
b1110 !
b11 "
b111 "
b1111 !
1:
06
03
1?
19
04
1;
08
05
1A
12
0.
0/
10
1%
0$
0#
1'
#195000
b1011 !
b10111 "
b11011 !
b11010 !
13
0?
09
14
15
0A
0;
00
02
1.
1#
0'
0%
#200000
b10101 "
b11110 !
19
0=
1;
0>
01
10
1%
0&
#205000
b11100 !
b10100 !
b101 "
b10101 !
b111 "
b10001 !
1=
03
1?
0<
09
07
05
1A
0;
00
12
0.
0#
1'
0%
#210000
b1111 "
b1011 "
b1 !
b11 !
b1011 !
b1001 "
1<
17
04
0=
0:
16
18
1/
1$
#215000
b11001 "
b10001 "
b11011 !
b10011 !
b10011 "
07
14
1=
06
13
08
15
1>
11
1.
0/
0$
1#
1&
#220000
b10010 "
b10010 !
b10110 !
b10100 !
b11100 !
b10000 "
0?
0<
19
17
0@
0=
0A
0>
01
02
0'
0&
#225000
b0 "
b1100 !
b1110 !
b10 "
1<
04
1=
03
1>
05
0.
11
1&
0#
#230000
b11 "
b10011 "
b1100 !
b10001 "
0<
1@
0=
13
0>
01
0&
#235000
b10101 "
b1101 !
b1001 !
b101 "
1?
09
1:
03
1A
12
1'
#240000
b11001 !
b100 "
b11011 !
b110 "
b10 "
0@
1=
0:
1<
14
0A
1>
11
02
0'
1&
#245000
b10011 !
b10111 !
b10010 "
b111 !
b10110 "
1:
13
19
07
04
1;
10
1%
#250000
b10100 "
b10111 !
b10000 "
14
0=
0:
15
0>
0;
00
01
1.
1#
0&
0%
#255000
b10101 !
b11101 !
0<
17
#260000
b11000 "
b11001 "
b11001 !
b1001 "
b1011 "
b11011 !
1<
09
1@
1=
16
03
1>
1A
18
05
0.
1/
12
11
1&
1'
1$
0#
#265000
b1011 !
b1010 "
b1111 !
b11010 "
b1101 !
0@
13
0<
19
04
0A
0>
01
02
0'
0&
#270000
b11110 "
b101 !
b10110 "
b111 !
1<
07
1:
06
1>
08
1;
10
0/
11
1&
0$
1%
#275000
b110 !
b10100 "
b10110 !
b10101 "
b101 "
b1101 "
1@
0=
16
03
0?
14
0>
01
0&
#280000
b10010 !
b11010 !
b11011 !
b1011 !
b1100 "
b11100 "
0@
13
1?
09
17
04
0;
18
1/
00
0%
1$
#285000
b11000 "
b1001 !
b1101 !
b1100 !
b11100 !
b11001 "
0?
0<
19
14
1@
0:
15
1.
1#
#290000
b11011 "
b11110 !
b11010 !
b11011 !
b11010 "
1?
1<
09
0@
1=
1>
11
1&
#295000
b10010 "
b10011 !
b10 "
b11 !
b1 !
b101 !
0<
19
07
04
06
03
0>
08
05
0.
0/
01
0&
0$
0#
#300000
b0 "
b100 !
b1 "
b1001 "
b110 !
b10 !
0?
1<
09
1@
0=
16
#305000
b1101 "
b10010 !
b1111 "
b111 "
14
1=
1:
06
1>
11
1&
#310000
b10011 !
b11 !
b101 "
b1101 "
0=
16
1?
04
0>
1A
12
01
0&
1'
#315000
b1011 !
b11101 "
b11100 "
b1001 !
b1101 !
b11000 "
b1100 !
b11100 !
b10000 "
0@
0:
06
13
0?
0<
19
17
14
0A
15
1.
02
0'
1#
#320000
b10010 "
b10011 "
b1100 !
b11011 "
04
1@
1=
16
05
18
1/
0.
0#
1$
#325000
b1011 "
b1000 !
b11000 !
09
14
03
#330000
b10000 !
b10001 !
b1001 "
b1000 "
b0 "
b10000 "
b1 !
0@
0=
06
13
1?
07
04
08
0/
0$
#335000
b11 !
b10100 "
b1011 !
b1010 !
b10110 "
b11110 "
b1110 "
1=
1:
16
03
0?
1<
17
1>
18
1/
11
1&
1$
#340000
b1110 !
b11110 !
b11100 !
b11101 !
b1100 "
b11100 "
0=
13
1?
0<
19
14
0>
15
1;
10
1.
01
0&
1#
1%
#345000
b11000 "
b10000 "
b11001 !
b11011 !
b11010 !
b10010 "
b10 "
0?
1<
09
1=
0:
06
03
1>
0;
08
05
0.
0/
00
11
1&
0%
0$
0#
#350000
b11110 !
b0 "
b10000 "
0=
13
19
0>
15
1.
01
0&
1#
#355000
b10110 !
b110 !
b10100 "
b10110 "
1=
1:
07
04
1>
1;
05
0.
10
11
1&
1%
0#
#360000
b10111 "
b11111 "
b11011 "
b11001 "
1@
0=
0:
16
0>
0;
00
01
0&
0%
#365000
b1001 "
b1110 !
b11110 !
b1000 "
b0 "
17
14
0@
06
03
#370000
b11010 !
b100 "
b1010 !
1:
09
04
#375000
b1000 !
b1001 !
b110 "
b1 !
b111 "
b11 "
1@
1=
0:
1?
0<
07
1A
12
1'
#380000
b1011 "
b10001 !
b10000 !
b1001 "
b1000 "
b1100 "
0?
14
0@
0=
1:
16
0A
02
0'
#385000
b11100 "
b10010 !
b10 !
b11000 "
1<
04
0:
13
#390000
b10000 "
b10010 "
b10011 "
b11 "
b0 !
b10000 !
b111 "
0<
14
1@
1=
1:
06
03
#395000
b10100 !
b11100 !
b11101 !
b1111 "
b1101 "
b1100 "
b11100 "
0@
0=
16
13
1?
19
17
18
15
1;
10
1.
1/
1$
1#
1%
#400000
b11111 !
b10100 "
b10110 "
b10111 "
1@
1=
06
1<
1A
1>
08
0/
11
12
1'
1&
0$
#405000
b11011 !
b111 "
b101 "
0=
03
09
0>
05
0;
00
0.
01
0&
0#
0%
#410000
b1011 !
b1010 !
b1101 "
b1100 "
b1110 !
b11100 "
b11110 "
0@
1=
16
13
0?
19
04
0A
1>
18
1;
10
1/
11
02
0'
1&
1$
1%
#415000
b11010 "
b110 !
b100 !
b10100 !
b11011 "
b10000 !
b1011 "
0<
09
07
14
1@
0:
03
0>
0;
08
0/
00
01
0&
0%
0$
#420000
b10001 !
b1111 "
b10011 !
b11 !
b1110 "
b111 !
b11110 "
0@
1:
13
1?
1<
19
04
1;
1>
11
10
1%
1&
#425000
b11100 "
b110 !
b100 !
b10100 !
b10000 !
b1100 "
0?
0<
09
14
0=
03
0>
0;
00
01
0&
0%
#430000
b100 "
b0 "
b1 "
b10001 !
b10011 !
b11 !
b10001 "
1?
1<
04
1@
0:
06
13
1A
12
1'
#435000
b1011 !
b1111 !
b10101 "
b1110 !
b1100 !
b11100 !
b101 "
1:
03
0?
0<
19
17
14
1;
0A
02
10
1%
0'
#440000
b111 "
b1111 "
b1110 "
b10100 !
b10000 !
b1010 "
b10010 !
1<
09
07
0@
1=
0:
16
1>
0;
00
11
1&
0%
#445000
b11010 !
b11000 !
0<
17
0>
18
1/
01
0&
1$
#450000
b11001 !
b11010 "
b11000 "
b10000 "
b10100 "
b10001 !
b10011 !
0=
1:
06
13
1?
1<
07
08
15
1.
0/
0$
1#
#455000
b11 !
b10101 "
b11101 "
b11001 "
b1 !
1@
0:
16
0<
04
1A
05
0.
12
1'
0#
#460000
b0 !
b1001 "
b1000 !
b11000 !
b1 "
b101 "
1:
06
03
0?
17
14
0A
02
0'
#465000
b111 "
b11001 !
b10111 "
b1001 !
b10011 "
1?
04
1=
0:
13
1A
12
1'
#470000
b1011 !
b11 !
b11011 "
b11001 "
b1001 "
0=
16
03
1<
07
#475000
b111 !
b1000 "
b10111 !
b10101 !
b0 "
0@
06
0<
19
14
0A
02
0'
#480000
b10100 !
b10 "
b10010 "
b10110 !
b11010 "
1=
16
13
0?
1<
1>
15
1.
11
1&
1#
#485000
b11011 "
b10111 !
b1011 "
b10101 !
b11 "
1?
0<
1@
06
03
1A
0>
05
0.
01
12
1'
0&
0#
#490000
b111 "
b11101 !
b1101 !
b110 "
b1100 !
0?
17
04
0@
1:
0A
1;
10
02
0'
1%
#495000
b100 "
b1110 !
b110 !
b10110 !
b101 "
1<
07
14
1@
0=
#500000
b1101 "
b1001 "
b10111 !
b1011 "
b11111 !
b1111 !
1?
17
04
1=
0:
16
1A
18
1>
0;
00
11
1/
12
1'
1$
1&
0%
#505000
b1011 !
b11 "
b111 "
b1010 !
b10 !
b10010 !
1:
06
0?
09
07
14
08
0A
02
0/
0$
0'
#510000
b10000 !
b110 "
b100 "
b0 "
b0 !
0@
0=
0:
0<
04
0>
01
0&
#515000
b10000 "
b1 !
b11 !
b10001 "
b10101 "
1?
1<
1@
1:
13
1A
12
1'
#520000
b11101 "
b1011 !
b11011 !
b1101 "
b11010 !
b1100 "
0?
17
14
0@
16
03
0A
18
1/
02
0'
1$
#525000
b11110 !
b1110 "
b1010 "
b10 "
b10110 !
b110 !
b11 "
1@
1=
0:
06
19
07
04
1>
08
0/
11
1&
0$
#530000
b100 !
b1 "
b0 "
0@
0=
0<
0>
01
0&
#535000
b101 !
b100 "
b1100 "
b1101 !
b1111 !
b1110 "
1=
1:
16
1?
1<
17
1>
1;
18
1/
10
11
1&
1%
1$
#540000
b11110 "
b1011 !
b11011 !
b11111 "
b10011 !
09
07
14
1@
13
0;
08
15
1A
12
1.
0/
00
0%
0$
1#
1'
#545000
b11110 "
0@
0A
02
0'
#550000
b10010 !
b11010 "
b10010 "
0:
06
0?
#555000
b10000 !
b10 "
b10100 !
b10101 !
b110 "
1:
03
1?
0<
19
1;
05
0>
01
0.
10
1%
0#
0&
#560000
b111 "
b10111 !
b10110 !
b11 "
0?
1<
1@
0:
1>
0;
00
11
1&
0%
#565000
b10011 "
b10010 !
b10010 "
b10011 !
1?
09
0@
13
15
1.
1#
#570000
b11010 "
b10001 !
b11110 "
b10101 !
b11111 "
b10100 !
0?
0<
19
1@
1:
16
0>
1;
10
01
0&
1%
#575000
b100 !
b10111 "
b110 !
b10 !
06
1<
09
04
1>
0;
05
0.
00
11
1&
0%
0#
#580000
b111 "
b11 "
b1011 "
0:
16
03
#585000
b1010 !
b1011 !
b11011 !
b1111 "
1:
1?
17
14
1A
18
1/
12
1'
1$
#590000
b1110 "
b11010 !
0?
0@
0A
02
0'
#595000
b1100 "
b11000 !
b11100 "
b10000 !
0<
07
0=
13
0>
08
15
1.
0/
01
0&
0$
1#
#600000
b10100 "
b10000 "
b10001 "
b10010 !
b1 "
b11010 !
1<
17
1@
0:
06
03
05
0.
0#
#605000
b1010 !
b1011 !
b11 "
b1001 !
1=
1?
0<
04
1A
12
1'
#610000
b1101 !
b10 "
b10010 "
b11101 !
b11100 !
0@
13
0?
19
14
0A
15
1.
02
0'
1#
#615000
b10110 "
b11110 !
b110 "
b1110 !
1<
04
1:
03
1>
05
1;
10
0.
11
1&
0#
1%
#620000
b110 !
b111 !
b10110 "
b10111 !
13
1?
07
14
15
1.
1#
#625000
b10100 "
b10101 "
b10101 !
b11101 !
0<
17
1@
0=
0>
1A
12
01
0&
1'
#630000
b10001 "
b1 "
b1101 !
b1111 !
b111 !
1<
07
04
0:
03
05
0;
00
0.
0#
0%
#635000
b1001 "
b11 !
b1011 !
09
17
16
18
1/
1$
#640000
b1011 "
b1111 "
b11111 "
b11011 !
b10111 "
b11111 !
19
14
1=
1:
06
13
1;
15
1>
08
0/
11
1.
10
1%
1#
1&
0$
#645000
b11110 !
b11100 !
b10101 "
b10001 "
b1100 !
b11001 "
b1000 !
0=
0:
16
0?
0<
09
04
0>
0;
18
0A
05
0.
02
1/
00
01
0&
0%
1$
0'
0#
#650000
b0 !
b1 !
b11 !
b111 !
1?
1<
19
07
1A
08
0/
12
1'
0$
#655000
b11000 "
b1000 "
b110 !
b100 !
b0 !
0?
0<
09
0@
03
0A
02
0'
#660000
b10000 !
b1001 "
b11001 "
b10010 !
1@
13
1<
14
15
1.
1#
#665000
b11101 "
b10 !
04
1:
05
0.
0#
#670000
b11111 "
b10111 "
b11 !
b111 !
b10110 "
b10111 !
1?
19
14
0@
1=
06
1;
15
1>
11
1.
10
1%
1#
1&
#675000
b11111 !
b11101 !
b11001 !
0<
09
17
0>
0;
00
01
0&
0%
#680000
b110 "
b10 "
b1010 "
b11000 !
b1011 "
0?
1@
0:
16
03
18
05
0.
1/
1$
0#
#685000
b1111 "
b111 "
b110 "
0@
1:
06
08
0/
0$
#690000
b1000 !
b0 !
b100 !
b101 !
1?
19
07
04
1;
10
1%
#695000
b100 "
b111 !
b1100 "
b1101 "
b10111 !
b11111 !
1<
17
14
1@
0=
16
18
1A
12
1/
1$
1'
#700000
b1001 "
b11011 !
b1011 "
b11001 !
b1010 "
b1001 !
0<
09
04
0@
1=
0:
0;
0A
02
00
0%
0'
#705000
b1000 !
b0 !
b1110 "
b100 !
b110 !
b1111 "
b10110 !
1@
1:
0?
1<
19
07
14
1;
1>
08
0/
11
10
1%
1&
0$
#710000
b1101 "
b10111 !
b111 !
1?
04
0=
1A
0>
01
12
1'
0&
#715000
b11101 "
b1111 !
b11111 "
b1110 !
0?
17
1=
13
0A
18
1>
11
1/
02
0'
1$
1&
#720000
b11011 "
b1100 !
b11100 !
b10100 !
b10101 !
1?
0<
07
14
0:
1A
0>
08
15
0;
00
1.
0/
01
12
1'
0&
0$
1#
0%
#725000
b10011 "
b10001 !
b11 "
b1 "
b10011 !
b11 !
1<
09
04
0=
06
03
05
0.
0#
#730000
b101 "
b10 !
b10101 "
b0 !
0?
0<
1:
13
0A
02
0'
#735000
b11101 "
b11111 "
b10000 !
b11011 "
b10001 !
1?
14
1=
0:
16
1A
15
1.
12
1'
1#
#740000
b11010 "
b10101 !
b1010 "
b1000 "
b101 !
b1100 "
19
04
0@
0=
1:
03
1;
05
0A
02
0.
10
1%
0#
0'
#745000
b111 !
b100 "
b110 !
b101 "
b111 "
1@
1=
06
0?
1<
1>
11
1&
#750000
b1110 !
b11110 !
b11 "
b1011 "
b1001 "
0=
0:
16
17
14
0>
0;
18
1/
00
01
0&
0%
1$
#755000
b11100 !
b11101 !
b1000 "
b10101 !
b101 !
b1100 "
0@
1:
1?
0<
07
04
1;
08
0/
10
1%
0$
#760000
b10101 !
14
#765000
b10001 !
b100 "
b110 "
b10011 !
b11011 !
b10 "
1=
0:
06
1<
09
17
1>
0;
00
11
1&
0%
#770000
b10010 "
b11111 !
b11010 "
b11110 "
19
1:
16
13
1;
18
15
1.
1/
10
1%
1$
1#
#775000
b11110 !
b11111 "
b11101 "
b11100 !
b10100 !
b1101 "
b101 "
1@
0=
06
03
0?
0<
07
0>
08
05
0.
0/
01
0&
0$
0#
#780000
b10000 !
b10001 !
b111 "
b11001 !
1=
1?
09
17
1A
0;
00
12
1'
0%
#785000
b110 "
b11011 !
b11010 !
b100 "
b10010 !
0?
1<
07
0@
0=
0A
02
0'
#790000
b101 "
b10000 !
b10001 !
1?
0<
1@
1A
12
1'
#795000
b10101 "
b11101 "
b11111 "
b11110 "
0@
1=
16
13
0A
15
1.
02
0'
1#
#800000
b11010 "
b11001 !
b11011 !
b11010 !
b1010 "
b1011 "
0?
1<
17
1@
0:
03
1>
18
05
0.
1/
11
1&
1$
0#
#805000
b1010 !
b1001 "
b1000 !
b1001 !
0=
1?
0<
04
0>
1A
12
01
0&
1'
#810000
b1101 "
b11001 !
b11011 !
b11010 !
0?
1<
14
1:
0A
02
0'
#815000
b10010 !
b11101 "
b11001 "
b10 !
b0 !
b1 !
0:
13
1?
0<
07
04
1A
08
0/
12
1'
0$
#820000
b10001 "
b1001 !
b1 "
b1011 !
1<
17
06
03
#825000
b1111 !
b11 "
b111 "
b11111 !
b1111 "
b10111 !
b10101 !
1=
1:
16
0<
19
07
14
1;
10
1%
#830000
b1110 "
b10100 !
b11110 "
b100 !
0?
04
0@
13
0A
02
0'
#835000
b11100 "
b10100 "
b1100 !
b1110 !
b10101 "
b101 "
1<
17
1@
0=
06
03
#840000
b1010 !
b1 "
b1001 "
b10 !
b1000 "
b11000 "
0@
0:
16
13
09
07
0;
00
0%
#845000
b11 !
b11010 "
b11110 "
b11111 "
1@
1=
1:
1?
1A
1>
11
12
1'
1&
#850000
b1 !
b1001 !
b1111 "
b1000 !
b1011 "
b1010 "
0@
0:
03
0?
0<
17
0A
0>
18
1/
01
02
0'
0&
1$
#855000
b1100 !
b10 "
b1110 !
b110 !
b10010 "
06
13
1<
19
07
08
1>
11
0/
0$
1&
#860000
b10000 "
b10100 "
b10101 "
b10 !
b1010 !
09
17
1@
0=
1:
0>
01
0&
#865000
b1011 !
b11101 "
b1101 "
b1111 "
b1011 "
b11 !
1=
0:
16
03
1?
07
1>
1A
12
11
1&
1'
#870000
b10011 !
b10001 !
b1010 "
b10101 !
b10 "
b0 "
b100 "
0@
0=
1:
06
0<
19
14
0A
0>
1;
10
01
02
0'
0&
1%
#875000
b10100 "
b11101 !
b10101 "
b11001 !
b10111 "
09
17
1@
1=
13
0;
1A
15
1.
12
00
0%
1'
1#
#880000
b11111 "
b11011 "
b10001 !
b11010 "
b10101 !
b11000 "
19
07
0@
0=
0:
16
0A
02
0'
#885000
b10100 !
b10110 !
b1000 "
b0 "
b11110 !
b10 "
1=
06
03
0?
1<
17
1>
05
0.
11
1&
0#
#890000
b1110 !
b11 "
b10011 "
b11011 "
b11001 "
1@
0=
16
13
04
0>
18
1/
01
0&
1$
#895000
b11101 "
b1100 !
b100 !
b11100 "
b1100 "
b1110 "
0<
07
0@
1=
1:
03
08
1;
10
0/
0$
1%
#900000
b0 !
b10000 !
b110 "
b10 "
b10010 !
b11 "
b1 "
1@
0=
0:
06
1<
09
14
0;
00
0%
#905000
b10011 !
b10111 !
b111 !
b1001 "
b1101 "
b101 !
b1111 "
1=
1:
16
1?
0<
19
04
1;
1A
12
10
1%
1'
#910000
b1 !
b1011 "
0:
09
0;
00
0%
#915000
b11011 "
b10001 !
b10011 "
b10011 !
b10111 !
b10111 "
1<
19
14
1:
06
13
1>
1;
15
1.
10
11
1&
1%
1#
#920000
b11111 !
b10110 "
b11110 !
b10100 "
b11100 "
b11100 !
b11000 "
0@
0=
0:
16
0?
0<
17
0A
0>
0;
18
1/
00
01
02
0'
0&
0%
1$
#925000
b1000 "
b1100 !
b1001 "
b1 "
b1110 !
b101 "
1<
04
1@
1:
06
03
05
1;
08
0/
10
0.
0#
1%
0$
#930000
b1010 !
b10101 "
b11010 !
b11000 !
b10001 "
0:
13
0<
09
14
0;
15
1.
00
0%
1#
#935000
b10000 !
b10011 "
b10010 "
b10100 !
b10 "
b100 !
0@
1=
03
19
07
04
05
0.
0#
#940000
b101 !
b111 !
b11 "
b10111 !
1@
1?
1<
14
1A
1>
11
12
1'
1&
#945000
b111 "
b10111 "
b10110 !
0?
1:
13
0A
1;
15
1.
10
02
0'
1%
1#
#950000
b10101 "
b10010 !
b10000 !
b10100 "
b10000 "
b10001 !
1?
0<
09
0@
0=
0:
0>
0;
00
01
0&
0%
#955000
b1 !
b10010 "
b11 !
b10110 "
1=
1:
1<
04
1>
05
0.
11
1&
0#
#960000
b11110 "
b1011 !
b1111 !
b11111 "
b1110 !
b11101 "
b1100 !
0?
0<
19
17
1@
0=
16
0>
1;
18
1/
10
01
0&
1%
1$
#965000
b1101 "
b101 "
b100 !
07
06
03
08
0/
0$
#970000
b10100 !
b10000 !
b100 "
b10001 !
b110 "
b10011 !
b10110 "
b11011 !
0@
1=
13
1?
1<
09
17
14
1>
15
0;
00
1.
11
1&
1#
0%
#975000
b10010 "
b1011 !
b1010 !
b10000 "
b1000 !
b0 "
0?
0<
04
0=
0:
03
0>
05
0.
01
0&
0#
#980000
b1000 "
b1100 !
b1001 "
b1101 "
b1101 !
b1111 !
1?
1<
19
1@
1:
16
1A
1;
18
1/
10
12
1'
1%
1$
#985000
b111 !
b11 !
b1001 "
b10 !
0:
0?
09
07
0;
0A
08
0/
02
00
0%
0'
0$
#990000
b1000 "
b0 !
b1000 !
b1100 !
0<
19
17
0@
18
1/
1$
#995000
b11100 !
b1010 "
b11101 !
b1011 "
b11111 !
1@
1=
1?
1<
14
1A
1>
11
12
1'
1&
